…
## The following objects are masked from 'package:stats':
## 
##     filter, lag

## The following objects are masked from 'package:base':
## 
##     intersect, setdiff, setequal, union

library(stringr)
library(janeaustenr)
library(ggplot2)
get_sentiments("afinn")

## # A tibble: 2,477 x 2
##    word       value
##    <chr>      <dbl>
##  1 abandon       -2
##  2 abandoned     -2
##  3 abandons      -2
##  4 abducted      -2
##  5 abduction     -2
##  6 abductions    -2
##  7 abhor         -3
##  8 abhorred      -3
##  9 abhorrent     -3
## 10 abhors        -3
## # ... with 2,467 more rows

tidy_books <- austen_books() %>%
  group_by(book) %>%
  mutate(linenumber = row_number(),
         chapter = cumsum(str_detect(text, regex("^chapter [\\divxlc]", 
                                                 ignore_case = TRUE)))) %>%
  ungroup() %>%
  unnest_tokens(word, text)

pride_prejudice <- tidy_books %>% 
  filter(book == "Pride & Prejudice")
pride_prejudice

## # A tibble: 122,204 x 4
##    book              linenumber chapter word     
##    <fct>                  <int>   <int> <chr>    
##  1 Pride & Prejudice          1       0 pride    
##  2 Pride & Prejudice          1       0 and      
##  3 Pride & Prejudice          1       0 prejudice
##  4 Pride & Prejudice          3       0 by       
##  5 Pride & Prejudice          3       0 jane     
##  6 Pride & Prejudice          3       0 austen   
##  7 Pride & Prejudice          7       1 chapter  
##  8 Pride & Prejudice          7       1 1        
##  9 Pride & Prejudice         10       1 it       
## 10 Pride & Prejudice         10       1 is       
## # ... with 122,194 more rows
…
Loughran Sentiment Lexicon

I will use the loughran`. I found it on this page: https://www.rdocumentation.org/packages/tidytext/versions/0.2.3/topics/get_sentiments

Note: If you initially encounter problems loading loughran, you will need to accept the license for the lexicon by typing in the console for R Markdown.

get_sentiments("loughran")

## # A tibble: 4,150 x 2
##    word         sentiment
##    <chr>        <chr>    
##  1 abandon      negative 
##  2 abandoned    negative 
##  3 abandoning   negative 
##  4 abandonment  negative 
##  5 abandonments negative 
##  6 abandons     negative 
##  7 abdicated    negative 
##  8 abdicates    negative 
##  9 abdicating   negative 
## 10 abdication   negative 
## # ... with 4,140 more rows
…
  temp <- tibble(chapter = seq_along(books[[i]]),
                  text = books[[i]]) %>%
    unnest_tokens(word, text) %>%
    ##Here we tokenize each chapter into words
    mutate(book = titles[i]) %>%
    select(book, everything())
  
  series <- rbind(series, temp)
}
# set factor to keep books in order of publication
series$book <- factor(series$book, levels = rev(titles))
# This is what the tokenizing looks like
series

## # A tibble: 258,763 x 3
##    book                 chapter word    
##    <fct>                  <int> <chr>   
##  1 Order of the Phoenix       1 dudley  
##  2 Order of the Phoenix       1 demented
##  3 Order of the Phoenix       1 the     
##  4 Order of the Phoenix       1 hottest 
##  5 Order of the Phoenix       1 day     
##  6 Order of the Phoenix       1 of      
##  7 Order of the Phoenix       1 the     
##  8 Order of the Phoenix       1 summer  
##  9 Order of the Phoenix       1 so      
## 10 Order of the Phoenix       1 far     
## # ... with 258,753 more rows
…
## Joining, by = "word"

## `summarise()` has grouped output by 'book'. You can override using the `.groups` argument.

#A view of the AFINN analysis
afinn

## # A tibble: 518 x 4
## # Groups:   book [1]
##    book                 index sentiment method
##    <fct>                <dbl>     <dbl> <chr> 
##  1 Order of the Phoenix     1         0 AFINN 
##  2 Order of the Phoenix     2         9 AFINN 
##  3 Order of the Phoenix     3        -5 AFINN 
##  4 Order of the Phoenix     4         3 AFINN 
##  5 Order of the Phoenix     5       -10 AFINN 
##  6 Order of the Phoenix     6       -24 AFINN 
##  7 Order of the Phoenix     7       -15 AFINN 
##  8 Order of the Phoenix     8        13 AFINN 
##  9 Order of the Phoenix     9       -21 AFINN 
## 10 Order of the Phoenix    10       -23 AFINN 
## # ... with 508 more rows
…
