…
1.1 The unnest_tokens() function

## # A tibble: 73,422 x 2
##    text                    book               
##  * <chr>                   <fct>              
##  1 "SENSE AND SENSIBILITY" Sense & Sensibility
##  2 ""                      Sense & Sensibility
##  3 "by Jane Austen"        Sense & Sensibility
##  4 ""                      Sense & Sensibility
##  5 "(1811)"                Sense & Sensibility
##  6 ""                      Sense & Sensibility
##  7 ""                      Sense & Sensibility
##  8 ""                      Sense & Sensibility
##  9 ""                      Sense & Sensibility
## 10 "CHAPTER 1"             Sense & Sensibility
## # ... with 73,412 more rows

## # A tibble: 73,422 x 4
##    text                    book                linenumber chapter
##    <chr>                   <fct>                    <int>   <int>
##  1 "SENSE AND SENSIBILITY" Sense & Sensibility          1       0
##  2 ""                      Sense & Sensibility          2       0
##  3 "by Jane Austen"        Sense & Sensibility          3       0
##  4 ""                      Sense & Sensibility          4       0
##  5 "(1811)"                Sense & Sensibility          5       0
##  6 ""                      Sense & Sensibility          6       0
##  7 ""                      Sense & Sensibility          7       0
##  8 ""                      Sense & Sensibility          8       0
##  9 ""                      Sense & Sensibility          9       0
## 10 "CHAPTER 1"             Sense & Sensibility         10       1
## # ... with 73,412 more rows

## # A tibble: 725,055 x 4
##    book                linenumber chapter word       
##    <fct>                    <int>   <int> <chr>      
##  1 Sense & Sensibility          1       0 sense      
##  2 Sense & Sensibility          1       0 and        
##  3 Sense & Sensibility          1       0 sensibility
##  4 Sense & Sensibility          3       0 by         
##  5 Sense & Sensibility          3       0 jane       
##  6 Sense & Sensibility          3       0 austen     
##  7 Sense & Sensibility          5       0 1811       
##  8 Sense & Sensibility         10       1 chapter    
##  9 Sense & Sensibility         10       1 1          
## 10 Sense & Sensibility         13       1 the        
## # ... with 725,045 more rows

## # A tibble: 1,149 x 2
##    word        lexicon
##    <chr>       <chr>  
##  1 a           SMART  
##  2 a's         SMART  
##  3 able        SMART  
##  4 about       SMART  
##  5 above       SMART  
##  6 according   SMART  
##  7 accordingly SMART  
##  8 across      SMART  
##  9 actually    SMART  
## 10 after       SMART  
## # ... with 1,139 more rows

## # A tibble: 217,609 x 4
##    book                linenumber chapter word       
##    <fct>                    <int>   <int> <chr>      
##  1 Sense & Sensibility          1       0 sense      
##  2 Sense & Sensibility          1       0 sensibility
##  3 Sense & Sensibility          3       0 jane       
##  4 Sense & Sensibility          3       0 austen     
##  5 Sense & Sensibility          5       0 1811       
##  6 Sense & Sensibility         10       1 chapter    
##  7 Sense & Sensibility         10       1 1          
##  8 Sense & Sensibility         13       1 family     
##  9 Sense & Sensibility         13       1 dashwood   
## 10 Sense & Sensibility         13       1 settled    
## # ... with 217,599 more rows

1.2 The gutenbergr package

The gutenbergr package provides access to the public domain works from the Project Gutenberg collection. The package includes tools both for downloading books (stripping out the unhelpful header/footer information), and a complete dataset of Project Gutenberg metadata that can be used to find works of interest. In this book, we will mostly use the function gutenberg_download() that downloads one or more works from Project Gutenberg by ID.

The dataset gutenberg_metadata contains information about each work, pairing Gutenberg ID with title, author, language, etc:

## # A tibble: 51,997 x 8
##    gutenberg_id title  author  gutenberg_autho~ language gutenberg_books~ rights
##           <int> <chr>  <chr>              <int> <chr>    <chr>            <chr> 
##  1            0  <NA>  <NA>                  NA en       <NA>             Publi~
##  2            1 "The ~ Jeffer~             1638 en       United States L~ Publi~
##  3            2 "The ~ United~                1 en       American Revolu~ Publi~
##  4            3 "John~ Kenned~             1666 en       <NA>             Publi~
##  5            4 "Linc~ Lincol~                3 en       US Civil War     Publi~
##  6            5 "The ~ United~                1 en       American Revolu~ Publi~
##  7            6 "Give~ Henry,~                4 en       American Revolu~ Publi~
##  8            7 "The ~ <NA>                  NA en       <NA>             Publi~
##  9            8 "Abra~ Lincol~                3 en       US Civil War     Publi~
## 10            9 "Abra~ Lincol~                3 en       US Civil War     Publi~
## # ... with 51,987 more rows, and 1 more variable: has_text <lgl>

For example, you could find the Gutenberg ID of Wuthering Heights by doing:

## # A tibble: 1 x 8
##   gutenberg_id title  author  gutenberg_autho~ language gutenberg_booksh~ rights
##          <int> <chr>  <chr>              <int> <chr>    <chr>             <chr> 
## 1          768 Wuthe~ Brontë~              405 en       Gothic Fiction/M~ Publi~
## # ... with 1 more variable: has_text <lgl>

## # A tibble: 12,314 x 2
##    gutenberg_id text               
##           <int> <chr>              
##  1          768 "Wuthering Heights"
##  2          768 ""                 
##  3          768 "by Emily Brontë"  
##  4          768 ""                 
##  5          768 ""                 
##  6          768 ""                 
##  7          768 ""                 
##  8          768 "CHAPTER I"        
##  9          768 ""                 
## 10          768 ""                 
## # ... with 12,304 more rows
…
1.3 Compare word frequency

As a common task in text analysis, compariosn of word frequencies is often employed as a tool to extract linguistic characteristics. A rule of thumb is to compare word proportions instead of raw counts.

In this example, we compare novels of Jane Austen, H.G. Wells, and the Bronte Sisters.

Now, our goal is to use Jane Austen as a reference to which the other two authors are compared to in terms of word frequency. The data manipulation requires a bit trick, after computing proportions of word usage, we first pivot_wider three authors altogether, an then pivot_longer the other two authors back.

## # A tibble: 56,090 x 4
##    word  `Jane Austen` other          proportion
##    <chr>         <dbl> <chr>               <dbl>
##  1 miss       0.00855  Brontë Sisters  0.00336  
##  2 miss       0.00855  H.G. Wells      0.000119 
##  3 time       0.00615  Brontë Sisters  0.00417  
##  4 time       0.00615  H.G. Wells      0.00685  
##  5 i          0.000188 Brontë Sisters  0.00450  
##  6 i          0.000188 H.G. Wells      0.00210  
##  7 fanny      0.00449  Brontë Sisters  0.0000431
##  8 fanny      0.00449  H.G. Wells      0        
##  9 emma       0.00398  Brontë Sisters  0        
## 10 emma       0.00398  H.G. Wells      0        
## # ... with 56,080 more rows
…
##    paragraphs                              
##    <chr>                                   
##  1 "this is, my bookdown book."            
##  2 "chapter 1: preface "                   
##  3 "thanks for   reading this book "       
##  4 "chapter 2: introduction "              
##  5 "chapter 3: methods "                   
##  6 "i demonstrate all of the methods here,"
##  7 "well, not all actually."               
##  8 "chapter 4: discussion "                
##  9 "blablabla,"                            
## 10 "blablabla,"                            
## 11 "blablabla."

## # A tibble: 188 x 1
##    character
##    <chr>    
##  1 t        
##  2 h        
##  3 i        
##  4 s        
##  5 i        
##  6 s        
##  7 m        
##  8 y        
##  9 b        
## 10 o        
## # ... with 178 more rows

## # A tibble: 155 x 1
##    characters
##    <chr>     
##  1 this      
##  2 hisi      
##  3 isis      
##  4 sism      
##  5 ismy      
##  6 smyb      
##  7 mybo      
##  8 yboo      
##  9 book      
## 10 ookd      
## # ... with 145 more rows
…
